%YAML 1.1
%TAG !u! tag:unity3d.com,2011:
--- !u!114 &11400000
MonoBehaviour:
  m_ObjectHideFlags: 0
  m_CorrespondingSourceObject: {fileID: 0}
  m_PrefabInstance: {fileID: 0}
  m_PrefabAsset: {fileID: 0}
  m_GameObject: {fileID: 0}
  m_Enabled: 1
  m_EditorHideFlags: 0
  m_Script: {fileID: 11500000, guid: 6f90cf92220b6d049b73ecbe89bdaed5, type: 3}
  m_Name: WBR_7
  m_EditorClassIdentifier: 
  id: 0
  name: 
  effect:
    effect: SupportersSkills
    multiplier: 1.0002
