%YAML 1.1
%TAG !u! tag:unity3d.com,2011:
--- !u!114 &11400000
MonoBehaviour:
  m_ObjectHideFlags: 0
  m_CorrespondingSourceObject: {fileID: 0}
  m_PrefabInstance: {fileID: 0}
  m_PrefabAsset: {fileID: 0}
  m_GameObject: {fileID: 0}
  m_Enabled: 1
  m_EditorHideFlags: 0
  m_Script: {fileID: 11500000, guid: 72d35c84a1f99ae49a0301b3d090163f, type: 3}
  m_Name: HolyStrike
  m_EditorClassIdentifier: 
  icon:
    sprite: {fileID: 21300000, guid: 837d191dd98f09a41bf346919d0a26d5, type: 3}
  littleIcon:
    sprite: {fileID: 21300000, guid: af442aaf30116ff4992c34b692cbb018, type: 3}
  name: SKILL_HEAVEN_STRIKE
  cost:
    number: 370
    prefixIndex: 0
  type: 1
  effect: holyStrike
  manaCost: 24
  cooldown: 3
  castTime: 3
  requiredLevel: 100
  value: 100
  step: 1.1
