%YAML 1.1
%TAG !u! tag:unity3d.com,2011:
--- !u!114 &11400000
MonoBehaviour:
  m_ObjectHideFlags: 0
  m_CorrespondingSourceObject: {fileID: 0}
  m_PrefabInstance: {fileID: 0}
  m_PrefabAsset: {fileID: 0}
  m_GameObject: {fileID: 0}
  m_Enabled: 1
  m_EditorHideFlags: 0
  m_Script: {fileID: 11500000, guid: 3c157a0897dac4343a3b13dafb6171ff, type: 3}
  m_Name: Item_47
  m_EditorClassIdentifier: 
  id: 46
  name: ITEM_NAME_46
  icon:
    sprite: {fileID: 21300000, guid: 73e82d1a5b4bcc042a9e45650246642d, type: 3}
  type: 2
  setItem: 1
  setName: SET_10
  rarity: 1
  effect:
    effect: TapDamage
    multiplier: 1.0007
  set2Effect:
    effect: GroundDamage
    multiplier: 1.0003
  set3Effect:
    effect: GroundDamage
    multiplier: 1.0003
  set4Effect:
    effect: GroundDamage
    multiplier: 1.0003
