%YAML 1.1
%TAG !u! tag:unity3d.com,2011:
--- !u!114 &11400000
MonoBehaviour:
  m_ObjectHideFlags: 0
  m_CorrespondingSourceObject: {fileID: 0}
  m_PrefabInstance: {fileID: 0}
  m_PrefabAsset: {fileID: 0}
  m_GameObject: {fileID: 0}
  m_Enabled: 1
  m_EditorHideFlags: 0
  m_Script: {fileID: 11500000, guid: 3c157a0897dac4343a3b13dafb6171ff, type: 3}
  m_Name: Item_78
  m_EditorClassIdentifier: 
  id: 77
  name: ITEM_NAME_77
  icon:
    sprite: {fileID: 21300000, guid: 2ed2a21b3738d254baa05003178ad6a7, type: 3}
  type: 1
  setItem: 0
  setName: SET_11
  rarity: 0
  effect:
    effect: RangedHelperDamage
    multiplier: 1.00003
  set2Effect:
    effect: TapDamage
    multiplier: 1.1
  set3Effect:
    effect: TapDamage
    multiplier: 1.2
  set4Effect:
    effect: TapDamage
    multiplier: 1.3
