%YAML 1.1
%TAG !u! tag:unity3d.com,2011:
--- !u!114 &11400000
MonoBehaviour:
  m_ObjectHideFlags: 0
  m_CorrespondingSourceObject: {fileID: 0}
  m_PrefabInstance: {fileID: 0}
  m_PrefabAsset: {fileID: 0}
  m_GameObject: {fileID: 0}
  m_Enabled: 1
  m_EditorHideFlags: 0
  m_Script: {fileID: 11500000, guid: 3c157a0897dac4343a3b13dafb6171ff, type: 3}
  m_Name: Item_68
  m_EditorClassIdentifier: 
  id: 67
  name: ITEM_NAME_67
  icon:
    sprite: {fileID: 21300000, guid: 3c25e000a4911b1479fbcbaf078d7b9e, type: 3}
  type: 3
  setItem: 0
  setName: SET_12
  rarity: 0
  effect:
    effect: GroundDamage
    multiplier: 1.00007
  set2Effect:
    effect: TapDamage
    multiplier: 1.1
  set3Effect:
    effect: TapDamage
    multiplier: 1.2
  set4Effect:
    effect: TapDamage
    multiplier: 1.3
