%YAML 1.1
%TAG !u! tag:unity3d.com,2011:
--- !u!114 &11400000
MonoBehaviour:
  m_ObjectHideFlags: 0
  m_CorrespondingSourceObject: {fileID: 0}
  m_PrefabInstance: {fileID: 0}
  m_PrefabAsset: {fileID: 0}
  m_GameObject: {fileID: 0}
  m_Enabled: 1
  m_EditorHideFlags: 0
  m_Script: {fileID: 11500000, guid: 3c157a0897dac4343a3b13dafb6171ff, type: 3}
  m_Name: Item_34
  m_EditorClassIdentifier: 
  id: 33
  name: ITEM_NAME_33
  icon:
    sprite: {fileID: 21300000, guid: 2eac24cd91911de44ab6a0f1819ad836, type: 3}
  type: 1
  setItem: 1
  setName: SET_7
  rarity: 1
  effect:
    effect: RangedHelperDamage
    multiplier: 1.0004
  set2Effect:
    effect: ChestChance
    multiplier: 0.0003
  set3Effect:
    effect: ChestChance
    multiplier: 0.0003
  set4Effect:
    effect: ChestChance
    multiplier: 0.0003
