%YAML 1.1
%TAG !u! tag:unity3d.com,2011:
--- !u!114 &11400000
MonoBehaviour:
  m_ObjectHideFlags: 0
  m_CorrespondingSourceObject: {fileID: 0}
  m_PrefabInstance: {fileID: 0}
  m_PrefabAsset: {fileID: 0}
  m_GameObject: {fileID: 0}
  m_Enabled: 1
  m_EditorHideFlags: 0
  m_Script: {fileID: 11500000, guid: 3c157a0897dac4343a3b13dafb6171ff, type: 3}
  m_Name: Item_42
  m_EditorClassIdentifier: 
  id: 41
  name: ITEM_NAME_41
  icon:
    sprite: {fileID: 21300000, guid: 4357c0f892dbecb4bb40e53d022e7b4c, type: 3}
  type: 1
  setItem: 0
  setName: SET_7
  rarity: 1
  effect:
    effect: MeleeHelperDamage
    multiplier: 1.0003
  set2Effect:
    effect: TapDamage
    multiplier: 1.1
  set3Effect:
    effect: TapDamage
    multiplier: 1.2
  set4Effect:
    effect: TapDamage
    multiplier: 1.3
