%YAML 1.1
%TAG !u! tag:unity3d.com,2011:
--- !u!114 &11400000
MonoBehaviour:
  m_ObjectHideFlags: 0
  m_CorrespondingSourceObject: {fileID: 0}
  m_PrefabInstance: {fileID: 0}
  m_PrefabAsset: {fileID: 0}
  m_GameObject: {fileID: 0}
  m_Enabled: 1
  m_EditorHideFlags: 0
  m_Script: {fileID: 11500000, guid: 3c157a0897dac4343a3b13dafb6171ff, type: 3}
  m_Name: Item_51
  m_EditorClassIdentifier: 
  id: 50
  name: ITEM_NAME_50
  icon:
    sprite: {fileID: 21300000, guid: 54f26a6279a833f469c60bb1843039f2, type: 3}
  type: 2
  setItem: 0
  setName: SET_10
  rarity: 1
  effect:
    effect: TapDamage
    multiplier: 1.0005
  set2Effect:
    effect: TapDamage
    multiplier: 1.1
  set3Effect:
    effect: TapDamage
    multiplier: 1.2
  set4Effect:
    effect: TapDamage
    multiplier: 1.3
