%YAML 1.1
%TAG !u! tag:unity3d.com,2011:
--- !u!114 &11400000
MonoBehaviour:
  m_ObjectHideFlags: 0
  m_CorrespondingSourceObject: {fileID: 0}
  m_PrefabInstance: {fileID: 0}
  m_PrefabAsset: {fileID: 0}
  m_GameObject: {fileID: 0}
  m_Enabled: 1
  m_EditorHideFlags: 0
  m_Script: {fileID: 11500000, guid: 3c157a0897dac4343a3b13dafb6171ff, type: 3}
  m_Name: Item_80
  m_EditorClassIdentifier: 
  id: 79
  name: ITEM_NAME_79
  icon:
    sprite: {fileID: 21300000, guid: e9ee22101e8cf164fac4cd21f37ceb40, type: 3}
  type: 3
  setItem: 0
  setName: SET_12
  rarity: 0
  effect:
    effect: AirDamage
    multiplier: 1.00004
  set2Effect:
    effect: TapDamage
    multiplier: 1.1
  set3Effect:
    effect: TapDamage
    multiplier: 1.2
  set4Effect:
    effect: TapDamage
    multiplier: 1.3
