%YAML 1.1
%TAG !u! tag:unity3d.com,2011:
--- !u!114 &11400000
MonoBehaviour:
  m_ObjectHideFlags: 0
  m_CorrespondingSourceObject: {fileID: 0}
  m_PrefabInstance: {fileID: 0}
  m_PrefabAsset: {fileID: 0}
  m_GameObject: {fileID: 0}
  m_Enabled: 1
  m_EditorHideFlags: 0
  m_Script: {fileID: 11500000, guid: de9ff2067b376684fbce641889853873, type: 3}
  m_Name: Ambush
  m_EditorClassIdentifier: 
  id: 0
  name: TREE_AMBUSH
  icon:
    sprite: {fileID: 21300000, guid: fa09aff5637cde949a4090b638876e35, type: 3}
  effects:
  - effect: AllHelperDamage
    multiplier: 1.2
  cost: 1
