%YAML 1.1
%TAG !u! tag:unity3d.com,2011:
--- !u!114 &11400000
MonoBehaviour:
  m_ObjectHideFlags: 0
  m_CorrespondingSourceObject: {fileID: 0}
  m_PrefabInstance: {fileID: 0}
  m_PrefabAsset: {fileID: 0}
  m_GameObject: {fileID: 0}
  m_Enabled: 1
  m_EditorHideFlags: 0
  m_Script: {fileID: 11500000, guid: de9ff2067b376684fbce641889853873, type: 3}
  m_Name: Valor
  m_EditorClassIdentifier: 
  id: 23
  name: TREE_VALOR
  icon:
    sprite: {fileID: 21300000, guid: 72ef9119227ad4842a28bdb824e5f9a8, type: 3}
  effects:
  - effect: TapDamage
    multiplier: 1.2
  cost: 1
