%YAML 1.1
%TAG !u! tag:unity3d.com,2011:
--- !u!114 &11400000
MonoBehaviour:
  m_ObjectHideFlags: 0
  m_CorrespondingSourceObject: {fileID: 0}
  m_PrefabInstance: {fileID: 0}
  m_PrefabAsset: {fileID: 0}
  m_GameObject: {fileID: 0}
  m_Enabled: 1
  m_EditorHideFlags: 0
  m_Script: {fileID: 11500000, guid: dae0f5ad3b19a4644886a957423102cd, type: 3}
  m_Name: DropperAds
  m_EditorClassIdentifier: 
  id: 8
  name: ACHIEVEMENT_ADS
  icon:
    sprite: {fileID: 21300000, guid: d4c3996c50dbee24f8c4acecc3941e0f, type: 3}
  stages:
  - target:
      number: 5
      prefixIndex: 0
    reward: 5
  - target:
      number: 50
      prefixIndex: 0
    reward: 10
  - target:
      number: 500
      prefixIndex: 0
    reward: 15
  - target:
      number: 5
      prefixIndex: 1
    reward: 25
  - target:
      number: 50
      prefixIndex: 1
    reward: 50
