%YAML 1.1
%TAG !u! tag:unity3d.com,2011:
--- !u!114 &11400000
MonoBehaviour:
  m_ObjectHideFlags: 0
  m_CorrespondingSourceObject: {fileID: 0}
  m_PrefabInstance: {fileID: 0}
  m_PrefabAsset: {fileID: 0}
  m_GameObject: {fileID: 0}
  m_Enabled: 1
  m_EditorHideFlags: 0
  m_Script: {fileID: 11500000, guid: dae0f5ad3b19a4644886a957423102cd, type: 3}
  m_Name: HeavenStrikes
  m_EditorClassIdentifier: 
  id: 9
  name: ACHIEVEMENT_HEAVEN_STRIKE
  icon:
    sprite: {fileID: 21300000, guid: 458ddaf20a32b1c41994c9db6dab9241, type: 3}
  stages:
  - target:
      number: 60
      prefixIndex: 0
    reward: 5
  - target:
      number: 80
      prefixIndex: 0
    reward: 10
  - target:
      number: 400
      prefixIndex: 0
    reward: 15
  - target:
      number: 6
      prefixIndex: 1
    reward: 25
  - target:
      number: 60
      prefixIndex: 1
    reward: 50
