%YAML 1.1
%TAG !u! tag:unity3d.com,2011:
--- !u!114 &11400000
MonoBehaviour:
  m_ObjectHideFlags: 0
  m_CorrespondingSourceObject: {fileID: 0}
  m_PrefabInstance: {fileID: 0}
  m_PrefabAsset: {fileID: 0}
  m_GameObject: {fileID: 0}
  m_Enabled: 1
  m_EditorHideFlags: 0
  m_Script: {fileID: 11500000, guid: dae0f5ad3b19a4644886a957423102cd, type: 3}
  m_Name: Taps
  m_EditorClassIdentifier: 
  id: 5
  name: ACHIEVEMENT_TAPS
  icon:
    sprite: {fileID: 21300000, guid: f9ed045a068b7044bb8c8e04dac5826d, type: 3}
  stages:
  - target:
      number: 1
      prefixIndex: 1
    reward: 5
  - target:
      number: 10
      prefixIndex: 1
    reward: 10
  - target:
      number: 100
      prefixIndex: 1
    reward: 15
  - target:
      number: 1
      prefixIndex: 2
    reward: 25
  - target:
      number: 10
      prefixIndex: 2
    reward: 50
