%YAML 1.1
%TAG !u! tag:unity3d.com,2011:
--- !u!114 &11400000
MonoBehaviour:
  m_ObjectHideFlags: 0
  m_CorrespondingSourceObject: {fileID: 0}
  m_PrefabInstance: {fileID: 0}
  m_PrefabAsset: {fileID: 0}
  m_GameObject: {fileID: 0}
  m_Enabled: 1
  m_EditorHideFlags: 0
  m_Script: {fileID: 11500000, guid: cffa982fed1e4d54c9723d092d75141d, type: 3}
  m_Name: 13
  m_EditorClassIdentifier: 
  id: 12
  name: ARTEFACT_NAME_13
  icon:
    sprite: {fileID: 21300000, guid: 04e59a69713fa3e4198ed746536c68bd, type: 3}
  tier: 4
  effect: RangedHelperDamage
  multiplier: 1.15
  tapDamage: 1.3
