%YAML 1.1
%TAG !u! tag:unity3d.com,2011:
--- !u!114 &11400000
MonoBehaviour:
  m_ObjectHideFlags: 0
  m_CorrespondingSourceObject: {fileID: 0}
  m_PrefabInstance: {fileID: 0}
  m_PrefabAsset: {fileID: 0}
  m_GameObject: {fileID: 0}
  m_Enabled: 1
  m_EditorHideFlags: 0
  m_Script: {fileID: 11500000, guid: cffa982fed1e4d54c9723d092d75141d, type: 3}
  m_Name: 22
  m_EditorClassIdentifier: 
  id: 21
  name: ARTEFACT_NAME_22
  icon:
    sprite: {fileID: 21300000, guid: 4b8134455f996c24fbd2ffd1b33472b9, type: 3}
  tier: 4
  effect: ArtefactsBuff
  multiplier: 1.04
  tapDamage: 1.5
