%YAML 1.1
%TAG !u! tag:unity3d.com,2011:
--- !u!114 &11400000
MonoBehaviour:
  m_ObjectHideFlags: 0
  m_CorrespondingSourceObject: {fileID: 0}
  m_PrefabInstance: {fileID: 0}
  m_PrefabAsset: {fileID: 0}
  m_GameObject: {fileID: 0}
  m_Enabled: 1
  m_EditorHideFlags: 0
  m_Script: {fileID: 11500000, guid: cffa982fed1e4d54c9723d092d75141d, type: 3}
  m_Name: 33
  m_EditorClassIdentifier: 
  id: 32
  name: ARTEFACT_NAME_33
  icon:
    sprite: {fileID: 21300000, guid: 585173a6a191cd24da7715a23151d681, type: 3}
  tier: 4
  effect: WarcryBuff
  multiplier: 1.1
  tapDamage: 1.2
