%YAML 1.1
%TAG !u! tag:unity3d.com,2011:
--- !u!1001 &7738050263132018666
PrefabInstance:
  m_ObjectHideFlags: 0
  serializedVersion: 2
  m_Modification:
    m_TransformParent: {fileID: 0}
    m_Modifications:
    - target: {fileID: 7522777717408581877, guid: a8001fd858ccd3e4f9bedbfbd3b0fbf3,
        type: 3}
      propertyPath: m_Name
      value: Coal_Rock_2
      objectReference: {fileID: 0}
    - target: {fileID: 7522777717408581875, guid: a8001fd858ccd3e4f9bedbfbd3b0fbf3,
        type: 3}
      propertyPath: m_LocalPosition.x
      value: 0
      objectReference: {fileID: 0}
    - target: {fileID: 7522777717408581875, guid: a8001fd858ccd3e4f9bedbfbd3b0fbf3,
        type: 3}
      propertyPath: m_LocalPosition.y
      value: 0
      objectReference: {fileID: 0}
    - target: {fileID: 7522777717408581875, guid: a8001fd858ccd3e4f9bedbfbd3b0fbf3,
        type: 3}
      propertyPath: m_LocalPosition.z
      value: 0
      objectReference: {fileID: 0}
    - target: {fileID: 7522777717408581875, guid: a8001fd858ccd3e4f9bedbfbd3b0fbf3,
        type: 3}
      propertyPath: m_LocalRotation.x
      value: 0
      objectReference: {fileID: 0}
    - target: {fileID: 7522777717408581875, guid: a8001fd858ccd3e4f9bedbfbd3b0fbf3,
        type: 3}
      propertyPath: m_LocalRotation.y
      value: 0
      objectReference: {fileID: 0}
    - target: {fileID: 7522777717408581875, guid: a8001fd858ccd3e4f9bedbfbd3b0fbf3,
        type: 3}
      propertyPath: m_LocalRotation.z
      value: 0
      objectReference: {fileID: 0}
    - target: {fileID: 7522777717408581875, guid: a8001fd858ccd3e4f9bedbfbd3b0fbf3,
        type: 3}
      propertyPath: m_LocalRotation.w
      value: 1
      objectReference: {fileID: 0}
    - target: {fileID: 7522777717408581875, guid: a8001fd858ccd3e4f9bedbfbd3b0fbf3,
        type: 3}
      propertyPath: m_RootOrder
      value: 0
      objectReference: {fileID: 0}
    - target: {fileID: 7522777717408581875, guid: a8001fd858ccd3e4f9bedbfbd3b0fbf3,
        type: 3}
      propertyPath: m_LocalEulerAnglesHint.x
      value: 0
      objectReference: {fileID: 0}
    - target: {fileID: 7522777717408581875, guid: a8001fd858ccd3e4f9bedbfbd3b0fbf3,
        type: 3}
      propertyPath: m_LocalEulerAnglesHint.y
      value: 0
      objectReference: {fileID: 0}
    - target: {fileID: 7522777717408581875, guid: a8001fd858ccd3e4f9bedbfbd3b0fbf3,
        type: 3}
      propertyPath: m_LocalEulerAnglesHint.z
      value: 0
      objectReference: {fileID: 0}
    - target: {fileID: 7522777717408581876, guid: a8001fd858ccd3e4f9bedbfbd3b0fbf3,
        type: 3}
      propertyPath: m_Sprite
      value: 
      objectReference: {fileID: 21300000, guid: 49de0bc4c2ef42a4f8b1df9e68c0eab0,
        type: 3}
    - target: {fileID: 1497506720428044534, guid: a8001fd858ccd3e4f9bedbfbd3b0fbf3,
        type: 3}
      propertyPath: sprites.Array.data[0]
      value: 
      objectReference: {fileID: 21300000, guid: 49de0bc4c2ef42a4f8b1df9e68c0eab0,
        type: 3}
    - target: {fileID: 1497506720428044534, guid: a8001fd858ccd3e4f9bedbfbd3b0fbf3,
        type: 3}
      propertyPath: sprites.Array.data[1]
      value: 
      objectReference: {fileID: 21300000, guid: 6636be76c5df07e4b9c93eae9f4de69b,
        type: 3}
    - target: {fileID: 1497506720428044534, guid: a8001fd858ccd3e4f9bedbfbd3b0fbf3,
        type: 3}
      propertyPath: sprites.Array.data[2]
      value: 
      objectReference: {fileID: 21300000, guid: 9d7e6d6be60b16b44b74fbe62dde3a18,
        type: 3}
    - target: {fileID: 7307445722748224866, guid: a8001fd858ccd3e4f9bedbfbd3b0fbf3,
        type: 3}
      propertyPath: m_Color.g
      value: 0.13192493
      objectReference: {fileID: 0}
    - target: {fileID: 7307445722748224866, guid: a8001fd858ccd3e4f9bedbfbd3b0fbf3,
        type: 3}
      propertyPath: m_Color.a
      value: 0.32156864
      objectReference: {fileID: 0}
    - target: {fileID: 6625053702960942064, guid: a8001fd858ccd3e4f9bedbfbd3b0fbf3,
        type: 3}
      propertyPath: alphaMultiplier
      value: 0.32
      objectReference: {fileID: 0}
    m_RemovedComponents: []
  m_SourcePrefab: {fileID: 100100000, guid: a8001fd858ccd3e4f9bedbfbd3b0fbf3, type: 3}
