%YAML 1.1
%TAG !u! tag:unity3d.com,2011:
--- !u!1001 &7738050263132018666
PrefabInstance:
  m_ObjectHideFlags: 0
  serializedVersion: 2
  m_Modification:
    m_TransformParent: {fileID: 0}
    m_Modifications:
    - target: {fileID: 7522777717408581877, guid: a8001fd858ccd3e4f9bedbfbd3b0fbf3,
        type: 3}
      propertyPath: m_Name
      value: Platinum_Rock_1
      objectReference: {fileID: 0}
    - target: {fileID: 7522777717408581875, guid: a8001fd858ccd3e4f9bedbfbd3b0fbf3,
        type: 3}
      propertyPath: m_LocalPosition.x
      value: 0
      objectReference: {fileID: 0}
    - target: {fileID: 7522777717408581875, guid: a8001fd858ccd3e4f9bedbfbd3b0fbf3,
        type: 3}
      propertyPath: m_LocalPosition.y
      value: 0
      objectReference: {fileID: 0}
    - target: {fileID: 7522777717408581875, guid: a8001fd858ccd3e4f9bedbfbd3b0fbf3,
        type: 3}
      propertyPath: m_LocalPosition.z
      value: 0
      objectReference: {fileID: 0}
    - target: {fileID: 7522777717408581875, guid: a8001fd858ccd3e4f9bedbfbd3b0fbf3,
        type: 3}
      propertyPath: m_LocalRotation.x
      value: 0
      objectReference: {fileID: 0}
    - target: {fileID: 7522777717408581875, guid: a8001fd858ccd3e4f9bedbfbd3b0fbf3,
        type: 3}
      propertyPath: m_LocalRotation.y
      value: 0
      objectReference: {fileID: 0}
    - target: {fileID: 7522777717408581875, guid: a8001fd858ccd3e4f9bedbfbd3b0fbf3,
        type: 3}
      propertyPath: m_LocalRotation.z
      value: 0
      objectReference: {fileID: 0}
    - target: {fileID: 7522777717408581875, guid: a8001fd858ccd3e4f9bedbfbd3b0fbf3,
        type: 3}
      propertyPath: m_LocalRotation.w
      value: 1
      objectReference: {fileID: 0}
    - target: {fileID: 7522777717408581875, guid: a8001fd858ccd3e4f9bedbfbd3b0fbf3,
        type: 3}
      propertyPath: m_RootOrder
      value: 0
      objectReference: {fileID: 0}
    - target: {fileID: 7522777717408581875, guid: a8001fd858ccd3e4f9bedbfbd3b0fbf3,
        type: 3}
      propertyPath: m_LocalEulerAnglesHint.x
      value: 0
      objectReference: {fileID: 0}
    - target: {fileID: 7522777717408581875, guid: a8001fd858ccd3e4f9bedbfbd3b0fbf3,
        type: 3}
      propertyPath: m_LocalEulerAnglesHint.y
      value: 0
      objectReference: {fileID: 0}
    - target: {fileID: 7522777717408581875, guid: a8001fd858ccd3e4f9bedbfbd3b0fbf3,
        type: 3}
      propertyPath: m_LocalEulerAnglesHint.z
      value: 0
      objectReference: {fileID: 0}
    - target: {fileID: 7522777717408581876, guid: a8001fd858ccd3e4f9bedbfbd3b0fbf3,
        type: 3}
      propertyPath: m_Sprite
      value: 
      objectReference: {fileID: 21300000, guid: 281e47026d5960840abda78924df8d88,
        type: 3}
    - target: {fileID: 1497506720428044534, guid: a8001fd858ccd3e4f9bedbfbd3b0fbf3,
        type: 3}
      propertyPath: sprites.Array.data[0]
      value: 
      objectReference: {fileID: 21300000, guid: 281e47026d5960840abda78924df8d88,
        type: 3}
    - target: {fileID: 1497506720428044534, guid: a8001fd858ccd3e4f9bedbfbd3b0fbf3,
        type: 3}
      propertyPath: sprites.Array.data[1]
      value: 
      objectReference: {fileID: 21300000, guid: 6159c85c7196e794381cc8c3d89894ee,
        type: 3}
    - target: {fileID: 1497506720428044534, guid: a8001fd858ccd3e4f9bedbfbd3b0fbf3,
        type: 3}
      propertyPath: sprites.Array.data[2]
      value: 
      objectReference: {fileID: 21300000, guid: 9176b2475a467d24ba2b67413faafb0c,
        type: 3}
    - target: {fileID: 7307445722748224866, guid: a8001fd858ccd3e4f9bedbfbd3b0fbf3,
        type: 3}
      propertyPath: m_Color.g
      value: 0.7176471
      objectReference: {fileID: 0}
    - target: {fileID: 7307445722748224866, guid: a8001fd858ccd3e4f9bedbfbd3b0fbf3,
        type: 3}
      propertyPath: m_Color.b
      value: 0.7960785
      objectReference: {fileID: 0}
    - target: {fileID: 7307445722748224866, guid: a8001fd858ccd3e4f9bedbfbd3b0fbf3,
        type: 3}
      propertyPath: m_Color.r
      value: 0.82745105
      objectReference: {fileID: 0}
    m_RemovedComponents: []
  m_SourcePrefab: {fileID: 100100000, guid: a8001fd858ccd3e4f9bedbfbd3b0fbf3, type: 3}
