%YAML 1.1
%TAG !u! tag:unity3d.com,2011:
--- !u!114 &11400000
MonoBehaviour:
  m_ObjectHideFlags: 0
  m_CorrespondingSourceObject: {fileID: 0}
  m_PrefabInstance: {fileID: 0}
  m_PrefabAsset: {fileID: 0}
  m_GameObject: {fileID: 0}
  m_Enabled: 1
  m_EditorHideFlags: 0
  m_Script: {fileID: 11500000, guid: 41f3fdeb5f2d26446971811942228bf4, type: 3}
  m_Name: Bjorn
  m_EditorClassIdentifier: 
  name: BJORN
  icon:
    sprite: {fileID: 21300000, guid: bc045bf33cbe7d344a591bec3ea5d102, type: 3}
  photo:
    sprite: {fileID: 21300000, guid: fe214a87580085643bb1179c0ce1b6b5, type: 3}
  type: 0
  fraction: 0
  cost:
    number: 4.48
    prefixIndex: 2
  damage:
    number: 35
    prefixIndex: 1
  flying: 1
