%YAML 1.1
%TAG !u! tag:unity3d.com,2011:
--- !u!114 &11400000
MonoBehaviour:
  m_ObjectHideFlags: 0
  m_CorrespondingSourceObject: {fileID: 0}
  m_PrefabInstance: {fileID: 0}
  m_PrefabAsset: {fileID: 0}
  m_GameObject: {fileID: 0}
  m_Enabled: 1
  m_EditorHideFlags: 0
  m_Script: {fileID: 11500000, guid: 41f3fdeb5f2d26446971811942228bf4, type: 3}
  m_Name: Hrodgeir
  m_EditorClassIdentifier: 
  name: HRODGEIR
  icon:
    sprite: {fileID: 21300000, guid: 0a48cc9f43d16b848921f7290cc9d5d4, type: 3}
  photo:
    sprite: {fileID: 21300000, guid: 6589d9642abf5784a957d1aed18f4f64, type: 3}
  type: 1
  fraction: 3
  cost:
    number: 1.8924
    prefixIndex: 3
  damage:
    number: 56.8
    prefixIndex: 2
  flying: 1
